{
  "type": "service_account",
  "project_id": "expressme-216513",
  "private_key_id": "6e3636340bc5257fb5f7e1c68ca06b9d68696991",
  "private_key": "-----BEGIN PRIVATE KEY-----\nMIIEvwIBADANBgkqhkiG9w0BAQEFAASCBKkwggSlAgEAAoIBAQDdXPo+uIBcLuJb\nht39ThzuuP9xD1Fu9CTx3hSglZCutPPS6nOqGbG+O4pajmuUgi0TcWuplTmiOYtF\nH+53CGfZWgKyn3MJmWB+q6E8Ac5mKRRQrnbWVK0afgzJ483UIVFM3Hk78ZQw7wX2\nCA6heY5jvK5uoSmh2jKiyDCJqD6QSSq69el9gtH406MK/8oS5KKKYHFnKnmIi3XG\nHvAP/uNeY5rxTKEErDeNme+t6+w/le/+PV7Dl2IGUKPswAoV5O8h8bCtM99mV1+a\n/tOJf+Icti/VvJ/QkjlLmYMNbTo3vRf9fB3sGM/K3KhKdZWdib/MRTdfJvGal4On\nq/15C9q5AgMBAAECggEALB2sjbVtd3GskPsW4LWhlH3wApM/8nHbrwxIZhyIohjU\nAvPQq1TFlJj/IL8Dd6xd2WMgRsLDoq3/MH6FotldAPcsVHbskTws+/Guh2wAu2Fy\neAXdDyf++6mlWNL6oU0mi7/gtW6Wzw3DzV2btNip5Pykcs3Rozz+HGzzJ2wNU+mx\n6hmTMaf0z3/CC4BrHshVxFASMG7my56Xopa4MZOhlvwhAZOKooyUA77OFtU4dkgp\nGSZubPoXO1ZJ2pPWRwdpOVH45eyJriwM9zhX9YN0G519spcA7hgB2hTdBy8jlON3\nnuzxnsd3KK2KvFG7JQNrFoaBIndGKeiX1mGdmKT0xQKBgQD/LXGgUJexsTWsTn+G\nvTtHLjGh57xK8Med71PnSIJ5ndttaPX1t/YjUMSQEWItWeKzLMCX2GUnclZ1G0pH\ndac5eYl/RdFo/00gazD5XzT8u5CxaxT3FO5pS6/UHAh6vPiI9we0qSjmJodGANAt\nuGnSSbjf7/BzxKA+iYOSel0WrwKBgQDeE6HbY7LOIDWPz1PvOcLnqoxVYLcDKvm9\nMtlTw6rX0MQ7xKhb9KmQIAFDCpF7Z0kOGshEKCmozUxN9zxklg4TaVlP4mhKpACZ\nyzWI05yeA2fpySJn5KUgdRHSnVgSNkiEjQoHiiS8nf0nm2PVaDhoF3C7OGb9czRe\nhTUjlfJ/FwKBgQDB9DOaa8dxK0WliyDJNAnbZ5QYAMCQoYTIWYGHmQh7Ee4XsiDJ\nPKNcYmaVLnFWES0LjSdyAuuX2QM4DZ8ew6FwQR2uXE34JZzk2DSoRqJKuvIWuFJ+\nHy27YOjrKseTKxEpYcI8ohrRHFXTcojJR5M/YAOiSoiUJc662eDktBcPRwKBgQDP\ni+eMAzw7miyUr35RKFl4a5LlxBKmWka2xMwJleeX9RtAhIWYEytZcB/dyQW4IApN\nrUgXMrXkdaHnh7WgiAC1sZJvrzgq8eVB1oG805AeuS4ndvu5vx14HRFAFh8WPjc9\n8hY6f6ffw4OxvW7rJpD471dDEe5m1oFOCQ5lqKDOlwKBgQD62MBJdzONuAm5/5ZQ\nBJkkHl2qbe6GJzybzqFjC9o0B/XBFY+OIarecZiHib/M/NrgjpDDN5jsOkpsCcnm\nr7/+VOEQe33NDd0T/SiJ3Zvku4TvPcbRuc+jHhsmG+6WctWarLCivl17aeA1wgiB\nPEwWKETJ8ZW2V0MbpAapgo3RxQ==\n-----END PRIVATE KEY-----\n",
  "client_email": "expressme@expressme-216513.iam.gserviceaccount.com",
  "client_id": "108530375684441584076",
  "auth_uri": "https://accounts.google.com/o/oauth2/auth",
  "token_uri": "https://oauth2.googleapis.com/token",
  "auth_provider_x509_cert_url": "https://www.googleapis.com/oauth2/v1/certs",
  "client_x509_cert_url": "https://www.googleapis.com/robot/v1/metadata/x509/expressme%40expressme-216513.iam.gserviceaccount.com"
}
